…
## select

对于给定的分析，您可能只需要数据表中列的子集；仅提取您需要的内容可以有助于整理杂乱，特别是当您有大型数据集时。使用select选择列。

您可以通过命名所有列来指定要保留的列

``` r
select(litters_df, group, litter_number, gd0_weight, pups_born_alive)
```

    ## # A tibble: 49 × 4
    ##   group litter_number gd0_weight pups_born_alive
    ##   <chr> <chr>              <dbl>           <dbl>
    ## 1 Con7  #85                 19.7               3
    ## 2 Con7  #1/2/95/2           27                 8
    ## 3 Con7  #5/5/3/83/3-3       26                 6
    ## # ℹ 46 more rows

您可以指定要保留的列范围 : 哪列到哪列

``` r
select(litters_df, group:gd_of_birth)
```

    ## # A tibble: 49 × 5
    ##   group litter_number gd0_weight gd18_weight gd_of_birth
    ##   <chr> <chr>              <dbl>       <dbl>       <dbl>
    ## 1 Con7  #85                 19.7        34.7          20
    ## 2 Con7  #1/2/95/2           27          42            19
    ## 3 Con7  #5/5/3/83/3-3       26          41.4          19
    ## # ℹ 46 more rows

## 您还可以指定要删除的列

删除

``` r
select(litters_df, -pups_survive)
```

    ## # A tibble: 49 × 7
    ##   group litter_number gd0_weight gd18_weight gd_of_birth pups_born_alive
    ##   <chr> <chr>              <dbl>       <dbl>       <dbl>           <dbl>
    ## 1 Con7  #85                 19.7        34.7          20               3
    ## 2 Con7  #1/2/95/2           27          42            19               8
    ## 3 Con7  #5/5/3/83/3-3       26          41.4          19               6
    ## # ℹ 46 more rows
    ## # ℹ 1 more variable: pups_dead_birth <dbl>

您可以将变量重新命名为此过程的一部分

``` r
select(litters_df, GROUP = group, LiTtEr_NuMbEr = litter_number)
```

    ## # A tibble: 49 × 2
    ##   GROUP LiTtEr_NuMbEr
    ##   <chr> <chr>        
    ## 1 Con7  #85          
    ## 2 Con7  #1/2/95/2    
    ## 3 Con7  #5/5/3/83/3-3
    ## # ℹ 46 more rows

如果您只想重命名某物，您可以使用rename而不是select。这将重命名您关心的变量，并保留其他所有内容
select by rename

``` r
rename(litters_df, GROUP = group, LiTtEr_NuMbEr = litter_number)
```

    ## # A tibble: 49 × 8
    ##   GROUP LiTtEr_NuMbEr gd0_weight gd18_weight gd_of_birth pups_born_alive
    ##   <chr> <chr>              <dbl>       <dbl>       <dbl>           <dbl>
    ## 1 Con7  #85                 19.7        34.7          20               3
    ## 2 Con7  #1/2/95/2           27          42            19               8
    ## 3 Con7  #5/5/3/83/3-3       26          41.4          19               6
    ## # ℹ 46 more rows
    ## # ℹ 2 more variables: pups_dead_birth <dbl>, pups_survive <dbl>

有一些方便的帮助函数进行select；阅读所有使用?select_helpers。我经常使用starts_with()ends_with()和contains()），特别是当变量用后缀或其他标准模式命名时
经常用！！！

``` r
select(litters_df, group, starts_with("gd"))
```

    ## # A tibble: 49 × 4
    ##   group gd0_weight gd18_weight gd_of_birth
    ##   <chr>      <dbl>       <dbl>       <dbl>
    ## 1 Con7        19.7        34.7          20
    ## 2 Con7        27          42            19
    ## 3 Con7        26          41.4          19
    ## # ℹ 46 more rows

rearange

``` r
select(litters_df, starts_with("gd"), group)
```

    ## # A tibble: 49 × 4
    ##   gd0_weight gd18_weight gd_of_birth group
    ##        <dbl>       <dbl>       <dbl> <chr>
    ## 1       19.7        34.7          20 Con7 
    ## 2       27          42            19 Con7 
    ## 3       26          41.4          19 Con7 
    ## # ℹ 46 more rows

``` r
select(litters_df, litter_number, everything())
```

    ## # A tibble: 49 × 8
    ##   litter_number group gd0_weight gd18_weight gd_of_birth pups_born_alive
    ##   <chr>         <chr>      <dbl>       <dbl>       <dbl>           <dbl>
    ## 1 #85           Con7        19.7        34.7          20               3
    ## 2 #1/2/95/2     Con7        27          42            19               8
    ## 3 #5/5/3/83/3-3 Con7        26          41.4          19               6
    ## # ℹ 46 more rows
    ## # ℹ 2 more variables: pups_dead_birth <dbl>, pups_survive <dbl>

我还经常使用iseverythingeverything()这对于在不丢弃任何东西的情况下重新组织列很方便：

``` r
select(litters_df, litter_number, pups_survive, everything())
```

    ## # A tibble: 49 × 8
    ##   litter_number pups_survive group gd0_weight gd18_weight gd_of_birth
    ##   <chr>                <dbl> <chr>      <dbl>       <dbl>       <dbl>
    ## 1 #85                      3 Con7        19.7        34.7          20
    ## 2 #1/2/95/2                7 Con7        27          42            19
    ## 3 #5/5/3/83/3-3            5 Con7        26          41.4          19
    ## # ℹ 46 more rows
    ## # ℹ 2 more variables: pups_born_alive <dbl>, pups_dead_birth <dbl>

relocate做类似的事情（有点像rename，因为它很方便，但并不重要）：

``` r
relocate(litters_df, litter_number, pups_survive)
```

    ## # A tibble: 49 × 8
    ##   litter_number pups_survive group gd0_weight gd18_weight gd_of_birth
    ##   <chr>                <dbl> <chr>      <dbl>       <dbl>       <dbl>
    ## 1 #85                      3 Con7        19.7        34.7          20
    ## 2 #1/2/95/2                7 Con7        27          42            19
    ## 3 #5/5/3/83/3-3            5 Con7        26          41.4          19
    ## # ℹ 46 more rows
    ## # ℹ 2 more variables: pups_born_alive <dbl>, pups_dead_birth <dbl>

在更大的数据集中，

最后，与dplyr中的其他函数一样，即使您只选择一列，select也会导出数据框架。大多数情况下，这很好，但有时您希望将向量存储在列中。要拉动单个变量，请使用pull。

只想要一个变量？

\##学习评估：在小狗数据中，选择包含猫砂数量、性别和PD耳朵的列。

``` r
select(pups_df, litter_number, sex, pd_ears)
```

    ## # A tibble: 313 × 3
    ##   litter_number   sex pd_ears
    ##   <chr>         <dbl>   <dbl>
    ## 1 #85               1       4
    ## 2 #85               1       4
    ## 3 #1/2/95/2         1       5
    ## # ℹ 310 more rows
…
``` r
filter(litters_df, pups_born_alive > 5)
```

    ## # A tibble: 41 × 8
    ##   group litter_number gd0_weight gd18_weight gd_of_birth pups_born_alive
    ##   <chr> <chr>              <dbl>       <dbl>       <dbl>           <dbl>
    ## 1 Con7  #1/2/95/2             27        42            19               8
    ## 2 Con7  #5/5/3/83/3-3         26        41.4          19               6
    ## 3 Con7  #4/2/95/3-3           NA        NA            20               6
    ## # ℹ 38 more rows
    ## # ℹ 2 more variables: pups_dead_birth <dbl>, pups_survive <dbl>

``` r
filter(litters_df, pups_born_alive >= 5)
```

    ## # A tibble: 46 × 8
    ##   group litter_number gd0_weight gd18_weight gd_of_birth pups_born_alive
    ##   <chr> <chr>              <dbl>       <dbl>       <dbl>           <dbl>
    ## 1 Con7  #1/2/95/2           27          42            19               8
    ## 2 Con7  #5/5/3/83/3-3       26          41.4          19               6
    ## 3 Con7  #5/4/2/95/2         28.5        44.1          19               5
    ## # ℹ 43 more rows
    ## # ℹ 2 more variables: pups_dead_birth <dbl>, pups_survive <dbl>
…
``` r
filter(pups_df, sex == 1)
```

    ## # A tibble: 155 × 6
    ##   litter_number   sex pd_ears pd_eyes pd_pivot pd_walk
    ##   <chr>         <dbl>   <dbl>   <dbl>    <dbl>   <dbl>
    ## 1 #85               1       4      13        7      11
    ## 2 #85               1       4      13        7      12
    ## 3 #1/2/95/2         1       5      13        7       9
    ## # ℹ 152 more rows
…
mutate

有时您需要选择列；有时您需要更改它们或创建新的列。你可以使用mutate来做到这一点。

下面的示例创建了一个测量gd18_weight和gd0_weight之间的差异的新变量，并修改了现有的

``` r
mutate(
  litters_df,
  wt_gain = gd18_weight - gd0_weight,
  group = str_to_lower(group)
)
```

    ## # A tibble: 49 × 9
    ##   group litter_number gd0_weight gd18_weight gd_of_birth pups_born_alive
    ##   <chr> <chr>              <dbl>       <dbl>       <dbl>           <dbl>
    ## 1 con7  #85                 19.7        34.7          20               3
    ## 2 con7  #1/2/95/2           27          42            19               8
    ## 3 con7  #5/5/3/83/3-3       26          41.4          19               6
    ## # ℹ 46 more rows
    ## # ℹ 3 more variables: pups_dead_birth <dbl>, pups_survive <dbl>, wt_gain <dbl>
…
你的新变量可以是旧变量的函数 新变量按照创建顺序出现在数据集的末尾
你可以覆盖旧的变量 您可以创建一个新变量，并立即引用（或更改）它
创建一个完全符合你需求的新变量可能是一个挑战；你了解的功能越多，这就越容易。

\###学习评估：在小狗数据中： 创建一个从PD枢轴中减去7的变量
创建一个变量，即所有PD变量的总和 解决方案

\#arrange
与前述相比，安排非常简单。您可以根据一个或多个列中的值排列数据中的行：

``` r
arrange(litters_df, pups_born_alive)
```

    ## # A tibble: 49 × 8
    ##   group litter_number gd0_weight gd18_weight gd_of_birth pups_born_alive
    ##   <chr> <chr>              <dbl>       <dbl>       <dbl>           <dbl>
    ## 1 Con7  #85                 19.7        34.7          20               3
    ## 2 Low7  #111                25.5        44.6          20               3
    ## 3 Low8  #4/84               21.8        35.2          20               4
    ## # ℹ 46 more rows
    ## # ℹ 2 more variables: pups_dead_birth <dbl>, pups_survive <dbl>

``` r
arrange(litters_df, desc(group), pups_born_alive)
```

    ## # A tibble: 49 × 8
    ##   group litter_number gd0_weight gd18_weight gd_of_birth pups_born_alive
    ##   <chr> <chr>              <dbl>       <dbl>       <dbl>           <dbl>
    ## 1 Mod8  #7/82-3-2           26.9        43.2          20               7
    ## 2 Mod8  #97                 24.5        42.8          20               8
    ## 3 Mod8  #5/93/2             NA          NA            19               8
    ## # ℹ 46 more rows
    ## # ℹ 2 more variables: pups_dead_birth <dbl>, pups_survive <dbl>

``` r
arrange(litters_df, gd0_weight)
```

    ## # A tibble: 49 × 8
    ##   group litter_number gd0_weight gd18_weight gd_of_birth pups_born_alive
    ##   <chr> <chr>              <dbl>       <dbl>       <dbl>           <dbl>
    ## 1 Mod7  #59                 17          33.4          19               8
    ## 2 Mod7  #62                 19.5        35.9          19               7
    ## 3 Con7  #85                 19.7        34.7          20               3
    ## # ℹ 46 more rows
    ## # ℹ 2 more variables: pups_dead_birth <dbl>, pups_survive <dbl>
…
    ## Rows: 49 Columns: 8
    ## ── Column specification ────────────────────────────────────────────────────────
    ## Delimiter: ","
    ## chr (2): Group, Litter Number
    ## dbl (6): GD0 weight, GD18 weight, GD of Birth, Pups born alive, Pups dead @ ...
    ## 
    ## ℹ Use `spec()` to retrieve the full column specification for this data.
    ## ℹ Specify the column types or set `show_col_types = FALSE` to quiet this message.

``` r
litters_df_clean
```

    ## # A tibble: 31 × 8
    ##   group litter_number gd0_weight gd18_weight gd_of_birth pups_born_alive
    ##   <chr> <chr>              <dbl>       <dbl>       <dbl>           <dbl>
    ## 1 con7  #85                 19.7        34.7          20               3
    ## 2 con7  #1/2/95/2           27          42            19               8
    ## 3 con7  #5/5/3/83/3-3       26          41.4          19               6
    ## # ℹ 28 more rows
    ## # ℹ 2 more variables: pups_dead_birth <dbl>, wt_gain <dbl>
…
    ## Rows: 313 Columns: 6
    ## ── Column specification ────────────────────────────────────────────────────────
    ## Delimiter: ","
    ## chr (1): Litter Number
    ## dbl (5): Sex, PD ears, PD eyes, PD pivot, PD walk
    ## 
    ## ℹ Use `spec()` to retrieve the full column specification for this data.
    ## ℹ Specify the column types or set `show_col_types = FALSE` to quiet this message.

``` r
pups_df
```

    ## # A tibble: 155 × 6
    ##   litter_number   sex pd_eyes pd_pivot pd_walk pd_pivot_ge7
    ##   <chr>         <dbl>   <dbl>    <dbl>   <dbl> <lgl>       
    ## 1 #85               1      13        7      11 TRUE        
    ## 2 #85               1      13        7      12 TRUE        
    ## 3 #1/2/95/2         1      13        7       9 TRUE        
    ## # ℹ 152 more rows
…
