…
pivot_longer(…) 这是 tidyr 包中的一个函数，用于将数据框从“宽格式（wide
format）”转换为“长格式（long format）”。

在数据导入过程中，我们使用haven包从.sas7bdat文件加载了PULSE生物标志物数据集。
现在让我们重新加载这些数据并深入分析：

``` r
pulse_df = 
  haven::read_sas("./data/public_pulse_data.sas7bdat") |>
  janitor::clean_names()

pulse_df
```

    ## # A tibble: 1,087 × 7
    ##      id   age sex   bdi_score_bl bdi_score_01m bdi_score_06m bdi_score_12m
    ##   <dbl> <dbl> <chr>        <dbl>         <dbl>         <dbl>         <dbl>
    ## 1 10003  48.0 male             7             1             2             0
    ## 2 10015  72.5 male             6            NA            NA            NA
    ## 3 10022  58.5 male            14             3             8            NA
    ## 4 10026  72.7 male            20             6            18            16
    ## 5 10035  60.4 male             4             0             1             2
    ## # ℹ 1,082 more rows
…
``` r
pulse_tidy_df = 
  pivot_longer(
    pulse_df,                           # 原始数据框
    bdi_score_bl:bdi_score_12m,         # 选取要转换的列，从 bdi_score_bl 到 bdi_score_12m
    names_to = "visit",                 # 新建一列名为 visit，用来存放原来的列名
    values_to = "bdi"                   # 新建一列名为 bdi，用来保存原来的数值（如 12、15 等）
  )

pulse_tidy_df
```

    ## # A tibble: 4,348 × 5
    ##      id   age sex   visit           bdi
    ##   <dbl> <dbl> <chr> <chr>         <dbl>
    ## 1 10003  48.0 male  bdi_score_bl      7
    ## 2 10003  48.0 male  bdi_score_01m     1
    ## 3 10003  48.0 male  bdi_score_06m     2
    ## 4 10003  48.0 male  bdi_score_12m     0
    ## 5 10015  72.5 male  bdi_score_bl      6
    ## # ℹ 4,343 more rows
…
``` r
pulse_tidy_df = 
  pivot_longer(
    pulse_df,                              # 原始数据框，包含多个时间点的抑郁评分（bdi）
    bdi_score_bl:bdi_score_12m,            # 要转换的列范围，从基线（bl）到12个月（12m）
    names_to = "visit",                    # 创建新变量 visit，用来保存原来的列名（如 bdi_score_bl）
    names_prefix = "bdi_score_",           # 去掉原列名前缀 "bdi_score_"，只保留后面的部分（如 bl、6m、12m）
    values_to = "bdi"                      # 创建新变量 bdi，用来存放原来各列中的数值
  )

pulse_tidy_df
```

    ## # A tibble: 4,348 × 5
    ##      id   age sex   visit   bdi
    ##   <dbl> <dbl> <chr> <chr> <dbl>
    ## 1 10003  48.0 male  bl        7
    ## 2 10003  48.0 male  01m       1
    ## 3 10003  48.0 male  06m       2
    ## 4 10003  48.0 male  12m       0
    ## 5 10015  72.5 male  bl        6
    ## # ℹ 4,343 more rows
…
  relocate(id, visit) |>                                   # 调整列顺序，把 id 和 visit 移到最前面
  
  mutate(                                                  # mutate：变出新列、改已有列
    visit = replace(visit, visit == "bl", "00m"),          # 将 visit 中的 "bl"（basicline基线）替换为 "00m"
    visit = factor(visit)                                  # 把 visit 列转换为因子（方便后续排序或分组分析）
  )

print(pulse_df, n = 12)  # 打印 pulse_df 的前 12 行数据
```

    ## # A tibble: 4,348 × 5
    ##       id visit   age sex     bdi
    ##    <dbl> <fct> <dbl> <chr> <dbl>
    ##  1 10003 00m    48.0 male      7
    ##  2 10003 01m    48.0 male      1
    ##  3 10003 06m    48.0 male      2
    ##  4 10003 12m    48.0 male      0
    ##  5 10015 00m    72.5 male      6
    ##  6 10015 01m    72.5 male     NA
    ##  7 10015 06m    72.5 male     NA
    ##  8 10015 12m    72.5 male     NA
    ##  9 10022 00m    58.5 male     14
    ## 10 10022 01m    58.5 male      3
    ## 11 10022 06m    58.5 male      8
    ## 12 10022 12m    58.5 male     NA
    ## # ℹ 4,336 more rows
…
    ## Rows: 49 Columns: 8
    ## ── Column specification ────────────────────────────────────────────────────────
    ## Delimiter: ","
    ## chr (2): Group, Litter Number
    ## dbl (6): GD0 weight, GD18 weight, GD of Birth, Pups born alive, Pups dead @ ...
    ## 
    ## ℹ Use `spec()` to retrieve the full column specification for this data.
    ## ℹ Specify the column types or set `show_col_types = FALSE` to quiet this message.

``` r
litter_df
```

    ## # A tibble: 98 × 8
    ##   group litter_number gd_of_birth pups_born_alive pups_dead_birth pups_survive
    ##   <chr> <chr>               <dbl>           <dbl>           <dbl>        <dbl>
    ## 1 Con7  #85                    20               3               4            3
    ## 2 Con7  #85                    20               3               4            3
    ## 3 Con7  #1/2/95/2              19               8               0            7
    ## 4 Con7  #1/2/95/2              19               8               0            7
    ## 5 Con7  #5/5/3/83/3-3          19               6               0            5
    ## # ℹ 93 more rows
    ## # ℹ 2 more variables: gd_time <dbl>, weight <dbl>
…
join them!

``` r
fas_df = 
  left_join(pup_df, litter_df, by = "litter_number") |> # 按 litter_number 列左连接合并pup_df和litter_df两个数据框
  arrange(litter_number) |>                             # 按 litter_number 升序排列行
  relocate(litter_number, dose)                         # 将 litter_number 和 dose 列移到最前面

fas_df                                                  # 查看合并整理后的数据框
```

    ## # A tibble: 313 × 15
    ##   litter_number dose  sex    pd_ears pd_eyes pd_pivot pd_walk day_of_treatment
    ##   <chr>         <chr> <chr>    <dbl>   <dbl>    <dbl>   <dbl> <chr>           
    ## 1 #1/2/95/2     con   male         5      13        7       9 7               
    ## 2 #1/2/95/2     con   male         5      13        8      10 7               
    ## 3 #1/2/95/2     con   female       4      13        7       9 7               
    ## 4 #1/2/95/2     con   female       4      13        7      10 7               
    ## 5 #1/2/95/2     con   female       5      13        8      10 7               
    ## # ℹ 308 more rows
    ## # ℹ 7 more variables: gd0_weight <dbl>, gd18_weight <dbl>, gd_of_birth <dbl>,
    ## #   pups_born_alive <dbl>, pups_dead_birth <dbl>, pups_survive <dbl>,
    ## #   wt_gain <dbl>
…
``` r
left_join(surv_os, surv_pr_git)                             # 左连接，保留 surv_os 所有行，匹配 surv_pr_git 的信息
```

    ## Joining with `by = join_by(id)`

    ## Warning in left_join(surv_os, surv_pr_git): Detected an unexpected many-to-many relationship between `x` and `y`.
    ## ℹ Row 7 of `x` matches multiple rows in `y`.
    ## ℹ Row 66 of `y` matches multiple rows in `x`.
    ## ℹ If a many-to-many relationship is expected, set `relationship =
    ##   "many-to-many"` to silence this warning.

    ## # A tibble: 175 × 4
    ##   id          os         prog  git_exp                                          
    ##   <chr>       <chr>      <chr> <chr>                                            
    ## 1 student_87  <NA>       MS    Pretty smooth: needed some work to connect Git, …
    ## 2 student_106 Windows 10 Other Pretty smooth: needed some work to connect Git, …
    ## 3 student_66  Mac OS X   MPH   Smooth: installation and connection with GitHub …
    ## 4 student_93  Windows 10 MS    Smooth: installation and connection with GitHub …
    ## 5 student_99  Mac OS X   MS    Smooth: installation and connection with GitHub …
    ## # ℹ 170 more rows

``` r
inner_join(surv_os, surv_pr_git)                            # 内连接，只保留两个表都存在的 id 行
```

    ## Joining with `by = join_by(id)`

    ## Warning in inner_join(surv_os, surv_pr_git): Detected an unexpected many-to-many relationship between `x` and `y`.
    ## ℹ Row 7 of `x` matches multiple rows in `y`.
    ## ℹ Row 66 of `y` matches multiple rows in `x`.
    ## ℹ If a many-to-many relationship is expected, set `relationship =
    ##   "many-to-many"` to silence this warning.

    ## # A tibble: 129 × 4
    ##   id          os         prog  git_exp                                          
    ##   <chr>       <chr>      <chr> <chr>                                            
    ## 1 student_87  <NA>       MS    Pretty smooth: needed some work to connect Git, …
    ## 2 student_106 Windows 10 Other Pretty smooth: needed some work to connect Git, …
    ## 3 student_66  Mac OS X   MPH   Smooth: installation and connection with GitHub …
    ## 4 student_93  Windows 10 MS    Smooth: installation and connection with GitHub …
    ## 5 student_99  Mac OS X   MS    Smooth: installation and connection with GitHub …
    ## # ℹ 124 more rows

``` r
anti_join(surv_os, surv_pr_git)                             # 反连接，保留 surv_os 中不在 surv_pr_git 的 id 行
```

    ## Joining with `by = join_by(id)`

    ## # A tibble: 46 × 2
    ##   id          os        
    ##   <chr>       <chr>     
    ## 1 student_86  Mac OS X  
    ## 2 student_91  Windows 10
    ## 3 student_24  Mac OS X  
    ## 4 student_103 Mac OS X  
    ## 5 student_163 Mac OS X  
    ## # ℹ 41 more rows
…
